#######################################
# Syntax Coloring Map SPI
#######################################

#######################################
# Datatypes (KEYWORD1)
#######################################

#######################################
# Methods and Functions (KEYWORD2)
#######################################
runourOS	KEYWORD2

#######################################
# Constants (LITERAL1)
#######################################
